module gitlab.com/gitlab-org/opstrace/opstrace/go

go 1.20

require (
	github.com/ClickHouse/clickhouse-go/v2 v2.13.0
	github.com/OneOfOne/xxhash v1.2.8
	github.com/evanphx/json-patch/v5 v5.6.0
	github.com/fluxcd/kustomize-controller/api v0.32.0
	github.com/fluxcd/pkg/apis/meta v0.18.0
	github.com/fluxcd/pkg/ssa v0.22.0
	github.com/gin-gonic/gin v1.8.1
	github.com/go-logr/logr v1.2.4
	github.com/go-openapi/errors v0.20.3
	github.com/go-openapi/loads v0.21.2
	github.com/go-openapi/runtime v0.25.0
	github.com/go-openapi/spec v0.20.6
	github.com/go-openapi/strfmt v0.21.3
	github.com/go-openapi/swag v0.22.3
	github.com/go-openapi/validate v0.22.0
	github.com/go-redis/redis_rate/v10 v10.0.1
	github.com/google/go-cmp v0.5.9
	github.com/google/uuid v1.3.0
	github.com/jessevdk/go-flags v1.5.0
	github.com/onsi/ginkgo/v2 v2.8.3
	github.com/onsi/gomega v1.27.1
	github.com/open-telemetry/opentelemetry-collector-contrib/extension/pprofextension v0.75.0
	github.com/open-telemetry/opentelemetry-collector-contrib/processor/attributesprocessor v0.80.0
	github.com/open-telemetry/opentelemetry-collector-contrib/receiver/jaegerreceiver v0.75.0
	github.com/prometheus/client_golang v1.16.0
	github.com/redis/go-redis/v9 v9.0.2
	github.com/sirupsen/logrus v1.9.3
	github.com/stretchr/testify v1.8.4
	github.com/testcontainers/testcontainers-go v0.20.1
	github.com/xanzy/go-gitlab v0.76.0
	github.com/xujiajun/nutsdb v0.11.1
	github.com/zeebo/blake3 v0.2.3
	gitlab.com/gitlab-org/opstrace/goose/v3 v3.11.4
	go.opentelemetry.io/collector v0.80.0
	go.opentelemetry.io/collector/component v0.80.0
	go.opentelemetry.io/collector/exporter v0.80.0
	go.opentelemetry.io/collector/exporter/loggingexporter v0.77.0
	go.opentelemetry.io/collector/exporter/otlpexporter v0.77.0
	go.opentelemetry.io/collector/extension v0.80.0
	go.opentelemetry.io/collector/extension/ballastextension v0.77.0
	go.opentelemetry.io/collector/extension/zpagesextension v0.80.0
	go.opentelemetry.io/collector/processor v0.80.0
	go.opentelemetry.io/collector/processor/batchprocessor v0.77.0
	go.opentelemetry.io/collector/processor/memorylimiterprocessor v0.77.0
	go.opentelemetry.io/collector/receiver v0.80.0
	go.opentelemetry.io/collector/receiver/otlpreceiver v0.77.0
	go.uber.org/automaxprocs v1.5.1
	go.uber.org/zap v1.24.0
	golang.org/x/net v0.15.0
	k8s.io/api v0.26.1
	k8s.io/apimachinery v0.26.1
	k8s.io/client-go v0.26.1
	k8s.io/kubectl v0.26.1
	sigs.k8s.io/cli-utils v0.34.0
	sigs.k8s.io/controller-runtime v0.14.6
)

require (
	contrib.go.opencensus.io/exporter/prometheus v0.4.2 // indirect
	github.com/Azure/go-ansiterm v0.0.0-20230124172434-306776ec8161 // indirect
	github.com/MakeNowJust/heredoc v1.0.0 // indirect
	github.com/andybalholm/brotli v1.0.5 // indirect
	github.com/apache/thrift v0.18.1 // indirect
	github.com/asaskevich/govalidator v0.0.0-20210307081110-f21760c49a8d // indirect
	github.com/beorn7/perks v1.0.1 // indirect
	github.com/bwmarrin/snowflake v0.3.0 // indirect
	github.com/cenkalti/backoff/v4 v4.2.1 // indirect
	github.com/cespare/xxhash/v2 v2.2.0 // indirect
	github.com/chai2010/gettext-go v1.0.2 // indirect
	github.com/davecgh/go-spew v1.1.1 // indirect
	github.com/docker/go-units v0.5.0 // indirect
	github.com/elazarl/goproxy v0.0.0-20190911111923-ecfe977594f1 // indirect
	github.com/emicklei/go-restful/v3 v3.10.0 // indirect
	github.com/evanphx/json-patch v5.6.0+incompatible // indirect
	github.com/exponent-io/jsonpath v0.0.0-20210407135951-1de76d718b3f // indirect
	github.com/fatih/camelcase v1.0.0 // indirect
	github.com/felixge/httpsnoop v1.0.3 // indirect
	github.com/fluxcd/pkg/apis/kustomize v0.7.0 // indirect
	github.com/go-errors/errors v1.4.2 // indirect
	github.com/go-faster/city v1.0.1 // indirect
	github.com/go-faster/errors v0.6.1 // indirect
	github.com/go-kit/log v0.2.1 // indirect
	github.com/go-logfmt/logfmt v0.5.1 // indirect
	github.com/go-logr/stdr v1.2.2 // indirect
	github.com/go-ole/go-ole v1.2.6 // indirect
	github.com/go-openapi/analysis v0.21.4 // indirect
	github.com/go-openapi/jsonpointer v0.19.6 // indirect
	github.com/go-openapi/jsonreference v0.20.1 // indirect
	github.com/go-task/slim-sprig v0.0.0-20210107165309-348f09dbbbc0 // indirect
	github.com/gogo/googleapis v1.4.1 // indirect
	github.com/gogo/protobuf v1.3.2 // indirect
	github.com/golang/groupcache v0.0.0-20210331224755-41bb18bfe9da // indirect
	github.com/golang/protobuf v1.5.3 // indirect
	github.com/golang/snappy v0.0.4 // indirect
	github.com/google/btree v1.1.2 // indirect
	github.com/google/gnostic v0.6.9 // indirect
	github.com/google/go-querystring v1.1.0 // indirect
	github.com/google/gofuzz v1.2.0 // indirect
	github.com/google/pprof v0.0.0-20230222194610-99052d3372e7 // indirect
	github.com/google/shlex v0.0.0-20191202100458-e7afc7fbc510 // indirect
	github.com/gorilla/mux v1.8.0 // indirect
	github.com/gregjones/httpcache v0.0.0-20190611155906-901d90724c79 // indirect
	github.com/hashicorp/go-retryablehttp v0.7.1 // indirect
	github.com/imdario/mergo v0.3.16 // indirect
	github.com/inconshreveable/mousetrap v1.1.0 // indirect
	github.com/jaegertracing/jaeger v1.41.0 // indirect
	github.com/josharian/intern v1.0.0 // indirect
	github.com/json-iterator/go v1.1.12 // indirect
	github.com/klauspost/compress v1.16.7 // indirect
	github.com/klauspost/cpuid/v2 v2.0.12 // indirect
	github.com/knadh/koanf v1.5.0 // indirect
	github.com/liggitt/tabwriter v0.0.0-20181228230101-89fcab3d43de // indirect
	github.com/lufia/plan9stats v0.0.0-20211012122336-39d0f177ccd0 // indirect
	github.com/mailru/easyjson v0.7.7 // indirect
	github.com/mattn/go-colorable v0.1.13 // indirect
	github.com/matttproud/golang_protobuf_extensions v1.0.4 // indirect
	github.com/mitchellh/copystructure v1.2.0 // indirect
	github.com/mitchellh/go-wordwrap v1.0.1 // indirect
	github.com/mitchellh/mapstructure v1.5.1-0.20220423185008-bf980b35cac4 // indirect
	github.com/mitchellh/reflectwalk v1.0.2 // indirect
	github.com/moby/spdystream v0.2.0 // indirect
	github.com/moby/term v0.5.0 // indirect
	github.com/modern-go/concurrent v0.0.0-20180306012644-bacd9c7ef1dd // indirect
	github.com/modern-go/reflect2 v1.0.2 // indirect
	github.com/monochromegane/go-gitignore v0.0.0-20200626010858-205db1a8cc00 // indirect
	github.com/mostynb/go-grpc-compression v1.2.0 // indirect
	github.com/munnerz/goautoneg v0.0.0-20191010083416-a7dc8b61c822 // indirect
	github.com/oklog/ulid v1.3.1 // indirect
	github.com/open-telemetry/opentelemetry-collector-contrib/internal/coreinternal v0.80.0 // indirect
	github.com/open-telemetry/opentelemetry-collector-contrib/pkg/translator/jaeger v0.75.0 // indirect
	github.com/opentracing/opentracing-go v1.2.0 // indirect
	github.com/paulmach/orb v0.10.0 // indirect
	github.com/peterbourgon/diskv v2.0.1+incompatible // indirect
	github.com/pierrec/lz4/v4 v4.1.18 // indirect
	github.com/pkg/errors v0.9.1 // indirect
	github.com/pmezard/go-difflib v1.0.0 // indirect
	github.com/power-devops/perfstat v0.0.0-20210106213030-5aafc221ea8c // indirect
	github.com/prometheus/client_model v0.4.0 // indirect
	github.com/prometheus/common v0.44.0 // indirect
	github.com/prometheus/procfs v0.11.0 // indirect
	github.com/prometheus/statsd_exporter v0.22.7 // indirect
	github.com/redis/go-redis/extra/redisprometheus/v9 v9.0.2
	github.com/rjeczalik/notify v0.9.3
	github.com/rs/cors v1.9.0 // indirect
	github.com/segmentio/asm v1.2.0 // indirect
	github.com/sergi/go-diff v1.2.0 // indirect
	github.com/shirou/gopsutil/v3 v3.23.5 // indirect
	github.com/shopspring/decimal v1.3.1 // indirect
	github.com/spf13/cobra v1.7.0 // indirect
	github.com/spf13/pflag v1.0.5 // indirect
	github.com/stretchr/objx v0.5.0 // indirect
	github.com/tklauser/go-sysconf v0.3.11 // indirect
	github.com/tklauser/numcpus v0.6.0 // indirect
	github.com/uber/jaeger-client-go v2.30.0+incompatible // indirect
	github.com/uber/jaeger-lib v2.4.1+incompatible // indirect
	github.com/xlab/treeprint v1.1.0 // indirect
	github.com/xujiajun/mmap-go v1.0.1 // indirect
	github.com/xujiajun/utils v0.0.0-20220904132955-5f7c5b914235 // indirect
	github.com/yusufpapurcu/wmi v1.2.3 // indirect
	go.mongodb.org/mongo-driver v1.11.4 // indirect
	go.opencensus.io v0.24.0 // indirect
	go.opentelemetry.io/collector/consumer v0.80.0 // indirect
	go.opentelemetry.io/collector/featuregate v1.0.0-rcv0013 // indirect
	go.opentelemetry.io/collector/pdata v1.0.0-rcv0013
	go.opentelemetry.io/collector/semconv v0.81.0
	go.opentelemetry.io/contrib/instrumentation/google.golang.org/grpc/otelgrpc v0.42.1-0.20230612162650-64be7e574a17 // indirect
	go.opentelemetry.io/contrib/instrumentation/net/http/otelhttp v0.42.0 // indirect
	go.opentelemetry.io/contrib/propagators/b3 v1.17.0 // indirect
	go.opentelemetry.io/contrib/zpages v0.42.0 // indirect
	go.opentelemetry.io/otel v1.16.0 // indirect
	go.opentelemetry.io/otel/exporters/prometheus v0.39.0 // indirect
	go.opentelemetry.io/otel/metric v1.16.0 // indirect
	go.opentelemetry.io/otel/sdk v1.16.0 // indirect
	go.opentelemetry.io/otel/sdk/metric v0.39.0 // indirect
	go.opentelemetry.io/otel/trace v1.16.0 // indirect
	go.starlark.net v0.0.0-20221028183056-acb66ad56dd2 // indirect
	go.uber.org/atomic v1.11.0 // indirect
	go.uber.org/multierr v1.11.0
	golang.org/x/crypto v0.13.0 // indirect
	golang.org/x/oauth2 v0.8.0 // indirect
	golang.org/x/sys v0.12.0 // indirect
	golang.org/x/term v0.12.0 // indirect
	golang.org/x/text v0.13.0 // indirect
	golang.org/x/time v0.3.0 // indirect
	golang.org/x/tools v0.13.0 // indirect
	google.golang.org/appengine v1.6.7 // indirect
	google.golang.org/grpc v1.57.0 // indirect
	google.golang.org/protobuf v1.31.0 // indirect
	gopkg.in/inf.v0 v0.9.1 // indirect
	gopkg.in/yaml.v2 v2.4.0 // indirect
	gopkg.in/yaml.v3 v3.0.1 // indirect
	k8s.io/apiextensions-apiserver v0.26.1 // indirect
	k8s.io/cli-runtime v0.26.1
	k8s.io/component-base v0.26.1 // indirect
	k8s.io/klog/v2 v2.80.1 // indirect
	k8s.io/kube-openapi v0.0.0-20230109183929-3758b55a6596 // indirect
	k8s.io/utils v0.0.0-20221128185143-99ec85e7a448 // indirect
	sigs.k8s.io/json v0.0.0-20221116044647-bc3834ca7abd // indirect
	sigs.k8s.io/kustomize/api v0.12.1 // indirect
	sigs.k8s.io/kustomize/kyaml v0.13.9 // indirect
	sigs.k8s.io/structured-merge-diff/v4 v4.2.3 // indirect
	sigs.k8s.io/yaml v1.3.0
)

require (
	cloud.google.com/go/compute v1.23.0 // indirect
	github.com/ClickHouse/ch-go v0.57.0 // indirect
	github.com/Microsoft/go-winio v0.6.1 // indirect
	github.com/alecthomas/participle/v2 v2.0.0 // indirect
	github.com/antonmedv/expr v1.12.5 // indirect
	github.com/benbjohnson/clock v1.3.0 // indirect
	github.com/containerd/containerd v1.6.19 // indirect
	github.com/cpuguy83/dockercfg v0.3.1 // indirect
	github.com/dgryski/go-rendezvous v0.0.0-20200823014737-9f7001d12a5f // indirect
	github.com/docker/distribution v2.8.2+incompatible // indirect
	github.com/docker/docker v24.0.2+incompatible // indirect
	github.com/docker/go-connections v0.4.0 // indirect
	github.com/fsnotify/fsnotify v1.6.0 // indirect
	github.com/gin-contrib/sse v0.1.0 // indirect
	github.com/go-playground/locales v0.14.0 // indirect
	github.com/go-playground/universal-translator v0.18.0 // indirect
	github.com/go-playground/validator/v10 v10.10.0 // indirect
	github.com/gobwas/glob v0.2.3 // indirect
	github.com/goccy/go-json v0.9.7 // indirect
	github.com/hashicorp/go-cleanhttp v0.5.2 // indirect
	github.com/iancoleman/strcase v0.2.0 // indirect
	github.com/joho/godotenv v1.4.0 // indirect
	github.com/leodido/go-urn v1.2.1 // indirect
	github.com/magiconair/properties v1.8.7 // indirect
	github.com/mattn/go-isatty v0.0.19 // indirect
	github.com/moby/patternmatcher v0.5.0 // indirect
	github.com/moby/sys/sequential v0.5.0 // indirect
	github.com/morikuni/aec v1.0.0 // indirect
	github.com/open-telemetry/opentelemetry-collector-contrib/internal/filter v0.80.0 // indirect
	github.com/open-telemetry/opentelemetry-collector-contrib/pkg/ottl v0.80.0 // indirect
	github.com/open-telemetry/opentelemetry-collector-contrib/pkg/pdatautil v0.80.0 // indirect
	github.com/opencontainers/go-digest v1.0.0 // indirect
	github.com/opencontainers/image-spec v1.1.0-rc4 // indirect
	github.com/opencontainers/runc v1.1.7 // indirect
	github.com/pelletier/go-toml/v2 v2.0.5 // indirect
	github.com/russross/blackfriday/v2 v2.1.0 // indirect
	github.com/shoenig/go-m1cpu v0.1.6 // indirect
	github.com/ugorji/go/codec v1.2.7 // indirect
	go.opentelemetry.io/collector/config/configauth v0.80.0 // indirect
	go.opentelemetry.io/collector/config/configcompression v0.81.0 // indirect
	go.opentelemetry.io/collector/config/configgrpc v0.80.0 // indirect
	go.opentelemetry.io/collector/config/confighttp v0.80.0 // indirect
	go.opentelemetry.io/collector/config/confignet v0.81.0 // indirect
	go.opentelemetry.io/collector/config/configopaque v0.81.0 // indirect
	go.opentelemetry.io/collector/config/configtelemetry v0.81.0 // indirect
	go.opentelemetry.io/collector/config/configtls v0.81.0 // indirect
	go.opentelemetry.io/collector/config/internal v0.81.0 // indirect
	go.opentelemetry.io/collector/confmap v0.80.0 // indirect
	go.opentelemetry.io/collector/connector v0.80.0 // indirect
	go.opentelemetry.io/collector/extension/auth v0.80.0 // indirect
	go.opentelemetry.io/otel/bridge/opencensus v0.39.0 // indirect
	golang.org/x/exp v0.0.0-20230905200255-921286631fa9 // indirect
	golang.org/x/mod v0.12.0 // indirect
	gonum.org/v1/gonum v0.13.0 // indirect
	google.golang.org/genproto/googleapis/rpc v0.0.0-20230731190214-cbb8c96f2d6d // indirect
)

// ambiguous import error:
// cloud.google.com/go/compute/metadata: ambiguous import: found package cloud.google.com/go/compute/metadata in multiple modules:
// cloud.google.com/go/compute v1.6.1 (/home/joe/.asdf/installs/golang/1.19.2/packages/pkg/mod/cloud.google.com/go/compute@v1.6.1/metadata)
// cloud.google.com/go/compute/metadata v0.2.1 (/home/joe/.asdf/installs/golang/1.19.2/packages/pkg/mod/cloud.google.com/go/compute/metadata@v0.2.1)
replace cloud.google.com/go => cloud.google.com/go v0.110.0
